<?xml version="1.0" encoding="utf-8"?>
<!-- Generator: Adobe Illustrator 22.0.1, SVG Export Plug-In . SVG Version: 6.00 Build 0)  -->
<svg version="1.1" id="Ebene_1" xmlns="http://www.w3.org/2000/svg" xmlns:xlink="http://www.w3.org/1999/xlink" x="0px" y="0px"
	 viewBox="0 0 200 174" style="enable-background:new 0 0 200 174;" xml:space="preserve">
<style type="text/css">
	.st0{fill:none;stroke:#000000;stroke-miterlimit:10;}
	.st1{fill:#1463CC;stroke:#000000;stroke-miterlimit:10;}
	.st2{fill:#FFFFFF;stroke:#000000;stroke-miterlimit:10;}
</style>
<g>
	<polygon class="st0" points="3,86.9 51.5,3 148.5,3 172.8,45 124.2,45 100,86.9 100,86.9 99.9,86.9 51.5,86.9 27.2,129 	"/>
	<polyline class="st1" points="124.2,129 100,171 100,171 100,171 148.5,171 172.8,128.9 172.8,128.9 172.8,129 124.2,129 	"/>
	<polygon class="st2" points="99.9,86.9 51.5,86.9 27.2,129 51.5,171 100,171 75.8,128.9 	"/>
	<polygon class="st2" points="172.8,128.9 197,86.9 172.8,45 124.2,45 100,86.9 148.5,86.9 	"/>
</g>
</svg>
